%!PS-Adobe-3.0 EPSF-3.0
%%Title: figure.eps
%%Creator: matplotlib version 3.0.2, http://matplotlib.org/
%%CreationDate: Sun Aug 25 18:18:25 2019
%%Orientation: portrait
%%BoundingBox: 75 223 536 568
%%EndComments
%%BeginProlog
/mpldict 8 dict def
mpldict begin
/m { moveto } bind def
/l { lineto } bind def
/r { rlineto } bind def
/c { curveto } bind def
/cl { closepath } bind def
/box {
m
1 index 0 r
0 exch r
neg 0 r
cl
} bind def
/clipbox {
box
clip
newpath
} bind def
%!PS-Adobe-3.0 Resource-Font
%%Title: DejaVu Sans
%%Copyright: Copyright (c) 2003 by Bitstream, Inc. All Rights Reserved. Copyright (c) 2006 by Tavmjong Bah. All Rights Reserved. DejaVu changes are in public domain 
%%Creator: Converted from TrueType to type 3 by PPR
25 dict begin
/_d{bind def}bind def
/_m{moveto}_d
/_l{lineto}_d
/_cl{closepath eofill}_d
/_c{curveto}_d
/_sc{7 -1 roll{setcachedevice}{pop pop pop pop pop pop}ifelse}_d
/_e{exec}_d
/FontName /DejaVuSans def
/PaintType 0 def
/FontMatrix[.001 0 0 .001 0 0]def
/FontBBox[-1021 -463 1793 1232]def
/FontType 3 def
/Encoding [ /period /zero /one /two /four /five /six /seven /eight /nine ] def
/FontInfo 10 dict dup begin
/FamilyName (DejaVu Sans) def
/FullName (DejaVu Sans) def
/Notice (Copyright (c) 2003 by Bitstream, Inc. All Rights Reserved. Copyright (c) 2006 by Tavmjong Bah. All Rights Reserved. DejaVu changes are in public domain ) def
/Weight (Book) def
/Version (Version 2.35) def
/ItalicAngle 0.0 def
/isFixedPitch false def
/UnderlinePosition -130 def
/UnderlineThickness 90 def
end readonly def
/CharStrings 11 dict dup begin
/.notdef 0 def
/period{318 0 107 0 210 124 _sc
107 124 _m
210 124 _l
210 0 _l
107 0 _l
107 124 _l
_cl}_d
/zero{636 0 66 -13 570 742 _sc
318 664 _m
267 664 229 639 203 589 _c
177 539 165 464 165 364 _c
165 264 177 189 203 139 _c
229 89 267 64 318 64 _c
369 64 407 89 433 139 _c
458 189 471 264 471 364 _c
471 464 458 539 433 589 _c
407 639 369 664 318 664 _c
318 742 _m
399 742 461 709 505 645 _c
548 580 570 486 570 364 _c
570 241 548 147 505 83 _c
461 19 399 -13 318 -13 _c
236 -13 173 19 130 83 _c
87 147 66 241 66 364 _c
66 486 87 580 130 645 _c
173 709 236 742 318 742 _c
_cl}_d
/one{636 0 110 0 544 729 _sc
124 83 _m
285 83 _l
285 639 _l
110 604 _l
110 694 _l
284 729 _l
383 729 _l
383 83 _l
544 83 _l
544 0 _l
124 0 _l
124 83 _l
_cl}_d
/two{{636 0 73 0 536 742 _sc
192 83 _m
536 83 _l
536 0 _l
73 0 _l
73 83 _l
110 121 161 173 226 239 _c
290 304 331 346 348 365 _c
380 400 402 430 414 455 _c
426 479 433 504 433 528 _c
433 566 419 598 392 622 _c
365 646 330 659 286 659 _c
255 659 222 653 188 643 _c
154 632 117 616 78 594 _c
78 694 _l
118 710 155 722 189 730 _c
223 738 255 742 284 742 _c
}_e{359 742 419 723 464 685 _c
509 647 532 597 532 534 _c
532 504 526 475 515 449 _c
504 422 484 390 454 354 _c
446 344 420 317 376 272 _c
332 227 271 164 192 83 _c
_cl}_e}_d
/four{636 0 49 0 580 729 _sc
378 643 _m
129 254 _l
378 254 _l
378 643 _l
352 729 _m
476 729 _l
476 254 _l
580 254 _l
580 172 _l
476 172 _l
476 0 _l
378 0 _l
378 172 _l
49 172 _l
49 267 _l
352 729 _l
_cl}_d
/five{{636 0 77 -13 549 729 _sc
108 729 _m
495 729 _l
495 646 _l
198 646 _l
198 467 _l
212 472 227 476 241 478 _c
255 480 270 482 284 482 _c
365 482 429 459 477 415 _c
525 370 549 310 549 234 _c
549 155 524 94 475 51 _c
426 8 357 -13 269 -13 _c
238 -13 207 -10 175 -6 _c
143 -1 111 6 77 17 _c
77 116 _l
106 100 136 88 168 80 _c
199 72 232 69 267 69 _c
}_e{323 69 368 83 401 113 _c
433 143 450 183 450 234 _c
450 284 433 324 401 354 _c
368 384 323 399 267 399 _c
241 399 214 396 188 390 _c
162 384 135 375 108 363 _c
108 729 _l
_cl}_e}_d
/six{{636 0 70 -13 573 742 _sc
330 404 _m
286 404 251 388 225 358 _c
199 328 186 286 186 234 _c
186 181 199 139 225 109 _c
251 79 286 64 330 64 _c
374 64 409 79 435 109 _c
461 139 474 181 474 234 _c
474 286 461 328 435 358 _c
409 388 374 404 330 404 _c
526 713 _m
526 623 _l
501 635 476 644 451 650 _c
425 656 400 659 376 659 _c
310 659 260 637 226 593 _c
}_e{192 549 172 482 168 394 _c
187 422 211 444 240 459 _c
269 474 301 482 336 482 _c
409 482 467 459 509 415 _c
551 371 573 310 573 234 _c
573 159 550 99 506 54 _c
462 9 403 -13 330 -13 _c
246 -13 181 19 137 83 _c
92 147 70 241 70 364 _c
70 479 97 571 152 639 _c
206 707 280 742 372 742 _c
396 742 421 739 447 735 _c
472 730 498 723 526 713 _c
_cl}_e}_d
/seven{636 0 82 0 551 729 _sc
82 729 _m
551 729 _l
551 687 _l
286 0 _l
183 0 _l
432 646 _l
82 646 _l
82 729 _l
_cl}_d
/eight{{636 0 68 -13 568 742 _sc
318 346 _m
271 346 234 333 207 308 _c
180 283 167 249 167 205 _c
167 161 180 126 207 101 _c
234 76 271 64 318 64 _c
364 64 401 76 428 102 _c
455 127 469 161 469 205 _c
469 249 455 283 429 308 _c
402 333 365 346 318 346 _c
219 388 _m
177 398 144 418 120 447 _c
96 476 85 511 85 553 _c
85 611 105 657 147 691 _c
188 725 245 742 318 742 _c
}_e{390 742 447 725 489 691 _c
530 657 551 611 551 553 _c
551 511 539 476 515 447 _c
491 418 459 398 417 388 _c
464 377 501 355 528 323 _c
554 291 568 251 568 205 _c
568 134 546 80 503 43 _c
459 5 398 -13 318 -13 _c
237 -13 175 5 132 43 _c
89 80 68 134 68 205 _c
68 251 81 291 108 323 _c
134 355 171 377 219 388 _c
183 544 _m
183 506 194 476 218 455 _c
}_e{242 434 275 424 318 424 _c
360 424 393 434 417 455 _c
441 476 453 506 453 544 _c
453 582 441 611 417 632 _c
393 653 360 664 318 664 _c
275 664 242 653 218 632 _c
194 611 183 582 183 544 _c
_cl}_e}_d
/nine{{636 0 63 -13 566 742 _sc
110 15 _m
110 105 _l
134 93 159 84 185 78 _c
210 72 235 69 260 69 _c
324 69 374 90 408 134 _c
442 178 462 244 468 334 _c
448 306 424 284 396 269 _c
367 254 335 247 300 247 _c
226 247 168 269 126 313 _c
84 357 63 417 63 494 _c
63 568 85 628 129 674 _c
173 719 232 742 306 742 _c
390 742 455 709 499 645 _c
543 580 566 486 566 364 _c
}_e{566 248 538 157 484 89 _c
429 21 356 -13 264 -13 _c
239 -13 214 -10 189 -6 _c
163 -2 137 5 110 15 _c
306 324 _m
350 324 385 339 411 369 _c
437 399 450 441 450 494 _c
450 546 437 588 411 618 _c
385 648 350 664 306 664 _c
262 664 227 648 201 618 _c
175 588 162 546 162 494 _c
162 441 175 399 201 369 _c
227 339 262 324 306 324 _c
_cl}_e}_d
end readonly def

/BuildGlyph
 {exch begin
 CharStrings exch
 2 copy known not{pop /.notdef}if
 true 3 1 roll get exec
 end}_d

/BuildChar {
 1 index /Encoding get exch get
 1 index /BuildGlyph get exec
}_d

FontName currentdict end definefont pop
end
%%EndProlog
mpldict begin
75.6 223.2 translate
460.8 345.6 0 0 clipbox
gsave
0 0 m
460.8 0 l
460.8 345.6 l
0 345.6 l
cl
1.000 setgray
fill
grestore
gsave
57.6 38.016 m
414.72 38.016 l
414.72 304.128 l
57.6 304.128 l
cl
1.000 setgray
fill
grestore
0.800 setlinewidth
1 setlinejoin
0 setlinecap
[] 0 setdash
0.000 setgray
gsave
/o {
gsave
newpath
translate
0.8 setlinewidth
1 setlinejoin
0 setlinecap
0 0 m
0 -3.5 l

gsave
0.000 setgray
fill
grestore
stroke
grestore
} bind def
57.6 38.016 o
grestore
/DejaVuSans findfont
18.000 scalefont
setfont
gsave
43.287500 17.344125 translate
0.000000 rotate
0.000000 0.000000 m /zero glyphshow
11.452148 0.000000 m /period glyphshow
17.173828 0.000000 m /zero glyphshow
grestore
gsave
/o {
gsave
newpath
translate
0.8 setlinewidth
1 setlinejoin
0 setlinecap
0 0 m
0 -3.5 l

gsave
0.000 setgray
fill
grestore
stroke
grestore
} bind def
129.024 38.016 o
grestore
gsave
114.711500 17.344125 translate
0.000000 rotate
0.000000 0.000000 m /zero glyphshow
11.452148 0.000000 m /period glyphshow
17.173828 0.000000 m /two glyphshow
grestore
gsave
/o {
gsave
newpath
translate
0.8 setlinewidth
1 setlinejoin
0 setlinecap
0 0 m
0 -3.5 l

gsave
0.000 setgray
fill
grestore
stroke
grestore
} bind def
200.448 38.016 o
grestore
gsave
186.135500 17.344125 translate
0.000000 rotate
0.000000 0.000000 m /zero glyphshow
11.452148 0.000000 m /period glyphshow
17.173828 0.000000 m /four glyphshow
grestore
gsave
/o {
gsave
newpath
translate
0.8 setlinewidth
1 setlinejoin
0 setlinecap
0 0 m
0 -3.5 l

gsave
0.000 setgray
fill
grestore
stroke
grestore
} bind def
271.872 38.016 o
grestore
gsave
257.559500 17.344125 translate
0.000000 rotate
0.000000 0.000000 m /zero glyphshow
11.452148 0.000000 m /period glyphshow
17.173828 0.000000 m /six glyphshow
grestore
gsave
/o {
gsave
newpath
translate
0.8 setlinewidth
1 setlinejoin
0 setlinecap
0 0 m
0 -3.5 l

gsave
0.000 setgray
fill
grestore
stroke
grestore
} bind def
343.296 38.016 o
grestore
gsave
328.983500 17.344125 translate
0.000000 rotate
0.000000 0.000000 m /zero glyphshow
11.452148 0.000000 m /period glyphshow
17.173828 0.000000 m /eight glyphshow
grestore
gsave
/o {
gsave
newpath
translate
0.8 setlinewidth
1 setlinejoin
0 setlinecap
0 0 m
0 -3.5 l

gsave
0.000 setgray
fill
grestore
stroke
grestore
} bind def
414.72 38.016 o
grestore
gsave
400.407500 17.344125 translate
0.000000 rotate
0.000000 0.000000 m /one glyphshow
11.452148 0.000000 m /period glyphshow
17.173828 0.000000 m /zero glyphshow
grestore
gsave
/o {
gsave
newpath
translate
0.8 setlinewidth
1 setlinejoin
0 setlinecap
0 0 m
-3.5 0 l

gsave
0.000 setgray
fill
grestore
stroke
grestore
} bind def
57.6 40.6712 o
grestore
gsave
-0.931250 33.835282 translate
0.000000 rotate
0.000000 0.000000 m /zero glyphshow
11.452148 0.000000 m /period glyphshow
17.173828 0.000000 m /nine glyphshow
28.625977 0.000000 m /four glyphshow
40.078125 0.000000 m /four glyphshow
grestore
gsave
/o {
gsave
newpath
translate
0.8 setlinewidth
1 setlinejoin
0 setlinecap
0 0 m
-3.5 0 l

gsave
0.000 setgray
fill
grestore
stroke
grestore
} bind def
57.6 85.5149 o
grestore
gsave
-0.931250 78.678989 translate
0.000000 rotate
0.000000 0.000000 m /zero glyphshow
11.452148 0.000000 m /period glyphshow
17.173828 0.000000 m /nine glyphshow
28.625977 0.000000 m /four glyphshow
40.078125 0.000000 m /five glyphshow
grestore
gsave
/o {
gsave
newpath
translate
0.8 setlinewidth
1 setlinejoin
0 setlinecap
0 0 m
-3.5 0 l

gsave
0.000 setgray
fill
grestore
stroke
grestore
} bind def
57.6 130.359 o
grestore
gsave
-0.931250 123.522697 translate
0.000000 rotate
0.000000 0.000000 m /zero glyphshow
11.452148 0.000000 m /period glyphshow
17.173828 0.000000 m /nine glyphshow
28.625977 0.000000 m /four glyphshow
40.078125 0.000000 m /six glyphshow
grestore
gsave
/o {
gsave
newpath
translate
0.8 setlinewidth
1 setlinejoin
0 setlinecap
0 0 m
-3.5 0 l

gsave
0.000 setgray
fill
grestore
stroke
grestore
} bind def
57.6 175.202 o
grestore
gsave
-0.931250 168.366404 translate
0.000000 rotate
0.000000 0.000000 m /zero glyphshow
11.452148 0.000000 m /period glyphshow
17.173828 0.000000 m /nine glyphshow
28.625977 0.000000 m /four glyphshow
40.078125 0.000000 m /seven glyphshow
grestore
gsave
/o {
gsave
newpath
translate
0.8 setlinewidth
1 setlinejoin
0 setlinecap
0 0 m
-3.5 0 l

gsave
0.000 setgray
fill
grestore
stroke
grestore
} bind def
57.6 220.046 o
grestore
gsave
-0.931250 213.210111 translate
0.000000 rotate
0.000000 0.000000 m /zero glyphshow
11.452148 0.000000 m /period glyphshow
17.173828 0.000000 m /nine glyphshow
28.625977 0.000000 m /four glyphshow
40.078125 0.000000 m /eight glyphshow
grestore
gsave
/o {
gsave
newpath
translate
0.8 setlinewidth
1 setlinejoin
0 setlinecap
0 0 m
-3.5 0 l

gsave
0.000 setgray
fill
grestore
stroke
grestore
} bind def
57.6 264.89 o
grestore
gsave
-0.931250 258.053819 translate
0.000000 rotate
0.000000 0.000000 m /zero glyphshow
11.452148 0.000000 m /period glyphshow
17.173828 0.000000 m /nine glyphshow
28.625977 0.000000 m /four glyphshow
40.078125 0.000000 m /nine glyphshow
grestore
1.500 setlinewidth
2 setlinecap
gsave
357.1 266.1 57.6 38.02 clipbox
57.6 61.912976 m
58.31424 61.912976 l
58.67136 56.012488 l
63.31392 56.012488 l
63.67104 61.912976 l
64.02816 61.912976 l
64.38528 56.012488 l
70.45632 56.012488 l
70.81344 50.112 l
71.52768 50.112 l
71.8848 61.912976 l
73.31328 61.912976 l
73.6704 73.713951 l
76.17024 73.713951 l
76.52736 79.614439 l
84.384 79.614439 l
84.74112 85.514927 l
88.31232 85.514927 l
88.66944 79.614439 l
95.0976 79.614439 l
95.45472 85.514927 l
97.24032 85.514927 l
97.59744 91.415415 l
101.16864 91.415415 l
101.52576 97.315902 l
102.24 97.315902 l
102.95424 109.116878 l
106.16832 109.116878 l
106.52544 115.017366 l
114.02496 115.017366 l
114.38208 120.917854 l
115.09632 120.917854 l
115.45344 126.818341 l
121.52448 126.818341 l
121.8816 132.718829 l
123.31008 132.718829 l
123.6672 126.818341 l
125.80992 126.818341 l
126.16704 120.917854 l
127.95264 120.917854 l
128.30976 126.818341 l
129.38112 126.818341 l
129.73824 120.917854 l
131.16672 120.917854 l
131.52384 115.017366 l
134.02368 115.017366 l
134.3808 120.917854 l
134.73792 120.917854 l
135.09504 115.017366 l
138.30912 115.017366 l
138.66624 120.917854 l
141.16608 120.917854 l
141.5232 126.818341 l
149.37984 126.818341 l
149.73696 132.718829 l
162.23616 132.718829 l
162.9504 144.519805 l
164.02176 144.519805 l
164.37888 138.619317 l
167.59296 138.619317 l
167.95008 144.519805 l
171.16416 144.519805 l
171.52128 138.619317 l
173.664 138.619317 l
174.02112 144.519805 l
174.73536 144.519805 l
175.09248 150.420293 l
176.16384 150.420293 l
176.52096 156.32078 l
176.87808 156.32078 l
177.2352 162.221268 l
179.73504 162.221268 l
180.09216 168.121756 l
182.23488 168.121756 l
182.592 174.022244 l
186.1632 174.022244 l
186.52032 179.922732 l
189.02016 179.922732 l
189.37728 185.82322 l
190.44864 185.82322 l
190.80576 191.723707 l
199.73376 191.723707 l
200.09088 197.624195 l
203.66208 197.624195 l
204.0192 203.524683 l
205.09056 203.524683 l
205.8048 215.325659 l
206.51904 215.325659 l
206.87616 221.226146 l
210.80448 221.226146 l
211.1616 215.325659 l
214.01856 215.325659 l
214.37568 221.226146 l
214.7328 215.325659 l
215.44704 215.325659 l
215.80416 221.226146 l
217.58976 221.226146 l
217.94688 215.325659 l
222.58944 215.325659 l
222.94656 221.226146 l
223.30368 221.226146 l
223.6608 227.126634 l
226.51776 227.126634 l
226.87488 233.027122 l
227.232 233.027122 l
227.58912 227.126634 l
229.0176 227.126634 l
229.37472 221.226146 l
229.73184 227.126634 l
230.8032 227.126634 l
231.16032 233.027122 l
231.87456 233.027122 l
232.23168 227.126634 l
232.5888 227.126634 l
232.94592 233.027122 l
233.30304 233.027122 l
233.66016 238.92761 l
234.73152 238.92761 l
235.08864 233.027122 l
235.44576 233.027122 l
236.16 244.828098 l
237.9456 244.828098 l
238.30272 250.728585 l
238.65984 250.728585 l
239.01696 244.828098 l
239.7312 244.828098 l
240.08832 238.92761 l
240.80256 238.92761 l
241.15968 244.828098 l
241.5168 244.828098 l
241.87392 238.92761 l
243.3024 238.92761 l
243.65952 244.828098 l
244.01664 256.629073 l
244.37376 256.629073 l
244.73088 262.529561 l
246.8736 262.529561 l
247.23072 256.629073 l
248.30208 256.629073 l
248.6592 250.728585 l
249.01632 250.728585 l
249.37344 256.629073 l
251.87328 256.629073 l
252.2304 268.430049 l
252.94464 268.430049 l
253.30176 274.330537 l
253.65888 268.430049 l
254.73024 268.430049 l
255.08736 274.330537 l
255.8016 262.529561 l
256.87296 262.529561 l
257.23008 268.430049 l
257.94432 268.430049 l
258.30144 262.529561 l
259.01568 262.529561 l
259.3728 268.430049 l
261.51552 268.430049 l
261.87264 280.231024 l
264.01536 280.231024 l
264.37248 286.131512 l
265.44384 286.131512 l
265.80096 280.231024 l
267.58656 280.231024 l
267.94368 274.330537 l
268.3008 280.231024 l
268.65792 274.330537 l
270.80064 274.330537 l
271.15776 268.430049 l
272.58624 268.430049 l
272.94336 274.330537 l
273.30048 274.330537 l
273.6576 268.430049 l
281.87136 268.430049 l
282.22848 274.330537 l
286.1568 274.330537 l
286.51392 268.430049 l
288.65664 268.430049 l
289.01376 262.529561 l
291.15648 262.529561 l
291.5136 268.430049 l
293.2992 268.430049 l
293.65632 262.529561 l
295.0848 262.529561 l
295.44192 268.430049 l
297.22752 268.430049 l
297.58464 262.529561 l
297.94176 268.430049 l
298.656 268.430049 l
299.01312 274.330537 l
299.37024 274.330537 l
299.72736 268.430049 l
305.44128 268.430049 l
305.7984 262.529561 l
312.58368 262.529561 l
312.9408 274.330537 l
314.36928 274.330537 l
314.7264 268.430049 l
316.86912 268.430049 l
317.22624 274.330537 l
321.15456 274.330537 l
321.51168 268.430049 l
323.6544 268.430049 l
324.01152 274.330537 l
324.36864 274.330537 l
324.72576 268.430049 l
325.08288 268.430049 l
325.44 274.330537 l
325.79712 268.430049 l
326.15424 268.430049 l
326.51136 274.330537 l
333.29664 274.330537 l
333.65376 280.231024 l
334.01088 280.231024 l
334.368 286.131512 l
340.08192 286.131512 l
340.43904 292.032 l
342.93888 292.032 l
343.296 286.131512 l
349.36704 286.131512 l
349.72416 280.231024 l
355.7952 280.231024 l
356.15232 274.330537 l
361.86624 274.330537 l
362.22336 280.231024 l
364.7232 280.231024 l
365.08032 274.330537 l
371.15136 274.330537 l
371.50848 280.231024 l
381.86496 280.231024 l
382.22208 286.131512 l
382.93632 286.131512 l
383.29344 280.231024 l
385.43616 280.231024 l
385.79328 286.131512 l
392.22144 286.131512 l
392.57856 274.330537 l
392.93568 268.430049 l
396.14976 268.430049 l
396.50688 262.529561 l
399.72096 262.529561 l
400.07808 268.430049 l
402.93504 268.430049 l
403.29216 262.529561 l
405.07776 262.529561 l
405.43488 256.629073 l
407.5776 256.629073 l
407.93472 262.529561 l
409.00608 262.529561 l
409.3632 256.629073 l
410.43456 256.629073 l
410.79168 250.728585 l
414.72 250.728585 l
414.72 250.728585 l
stroke
grestore
0.800 setlinewidth
0 setlinejoin
[] 0 setdash
gsave
57.6 38.016 m
57.6 304.128 l
stroke
grestore
gsave
414.72 38.016 m
414.72 304.128 l
stroke
grestore
gsave
57.6 38.016 m
414.72 38.016 l
stroke
grestore
gsave
57.6 304.128 m
414.72 304.128 l
stroke
grestore

end
showpage
